{
	"id": "eec1c59e-7d60-4128-8dfb-063f2abbe77d",
	"name": "Production",
	"values": [
		{
			"key": "baseUrl",
			"value": "http://cars-api-production-env.eba-v3vmxcsq.us-east-1.elasticbeanstalk.com/",
			"type": "default",
			"enabled": true
		}
	],
	"_postman_variable_scope": "environment",
	"_postman_exported_at": "2023-11-08T20:17:30.466Z",
	"_postman_exported_using": "Postman/10.19.14"
}